[npc]
Moltres
up
0
45
10
Moltres,50
1
-1
0
false
false
false
[/npc]
[npc]
Moltres
up
0
46
10
Moltres,50
1
-1
0
false
false
false
[/npc]
[npc]
Ranger Beth
left
357
17
87
Bellsprout,38,Gloom,38
2
-1
1
false
false
false
[/npc]
[npc]
Crush Girl Jocelyn
left
273
22
77
Hitmonchan,38,Hitmonchan,38
2
-1
2
false
false
false
[/npc]
[npc]
Ranger Logan
left
355
41
60
Exeggcute,37,Exeggcutor,40
2
-1
3
false
false
false
[/npc]
[warp]
33
103
18
12
-28
2
0
[/warp]
[warp]
34
103
18
12
-28
2
0
[/warp]
[warp]
35
103
18
12
-28
2
0
[/warp]
[warp]
23
72
11
73
-42
2
0
[/warp]
[warp]
54
65
63
11
-42
2
0
[/warp]
[warp]
40
48
46
19
-28
1
0
[/warp]
[warp]
44
21
40
50
-28
1
0
[/warp]
[warp]
45
21
40
50
-28
1
0
[/warp]
[warp]
46
21
40
50
-28
1
0
[/warp]
[warp]
47
21
40
50
-28
1
0
[/warp]