[npc]
Seasond_Sailor
up
395
13
14
NULL
0
-1
0
false
false
false
[/npc]
[npc]
Young_Girl
down
271
17
8
NULL
0
-1
1
false
false
false
[/npc]
[warp]
19
5
14
17
-39
7
0
[/warp]
[warp]
40
5
34
18
-39
7
0
[/warp]