[warp]
55
24
3
9
-42
4
0
[/warp]
[npc]
Hiker Daryl
up
366
76
12
Sudowoodo,50
1
-1
0
false
false
false
[/npc]
[npc]
Pokemaniac Hector
down
320
54
5
Rhyhorn,49,Kangaskhan,49
2
-1
1
false
false
false
[/npc]
[npc]
Ruin Maniac Stanly
right
365
36
18
Onix,48,Graveler,48   
3
-1
2
false
false
false
[/npc]
[npc]
Ruin Maniac Foster
down
365
60
10
Golem,50   
1
-1
3
false
false
false
[/npc]
[npc]
Ruin Maniac Larry
right
365
54
28
Machoke,49
2
-1
4
false
false
false
[/npc]