[npc]
Ruin Maniac Brandon
right
365
15
9
Onix,50
1
-1
0
false
false
false
[/npc]
[npc]
Gentleman Clifford
down
280
50
11
Marowak,49,Golduck,49
2
-1
1
false
false
false
[/npc]
[npc]
Fighter Edna
right
273
75
10
Machamp,50
1
-1
2
false
false
false
[/npc]
[npc]
Ruin Maniac Benjamin
left
365
160
17
Geodude,48,Graveler,48
3
-1
3
false
false
false
[/npc]
[warp]
11
8
36
52
-34
-49
0
[/warp]
[warp]
12
22
44
56
-34
-48
0
[/warp]
[warp]
49
10
41
54
-34
-47
0
[/warp]
[warp]
121
11
40
57
-34
-46
0
[/warp]
[warp]
138
15
36
57
-34
-45
0
[/warp]
[warp]
72
12
39
57
-34
-44
0
[/warp]
[warp]
158
15
39
54
-34
-43
0
[/warp]
[warp]
159
15
40
54
-34
-43
0
[/warp]










