[npc]
Old_Man
right
242
21
28
NULL
0
-1
0,1
false
false
false
[/npc]
[npc]
Old_Woman
left
277
24
28
NULL
0
-1
2
false
false
false
[/npc]
[warp]
22
32
25
9
-29
2
0
[/warp]
[warp]
23
32
25
9
-29
2
0
[/warp]