[warp]
23
36
31
22
6
-4
0
[/warp]
[npc]
Advisor
down
344
24
33
NULL
0
-1
1,2,3,4,5
FALSE
FALSE
FALSE
[/npc]
[npc]
Swimmer Luis
down
281
26
23
Horsea,16,Shellder,16
2
-1
6
FALSE
FALSE
FALSE
[/npc]
[npc]
Picnicker Diana
left
282
25
28
Goldeen,19
1
-1
7,8
FALSE
FALSE
FALSE
[/npc]
[npc]
Misty
down
300
23
14
Golduck,22,Quagsire,22,Lapras,22,Seaking,22,Blastoise,22,Starmie,22
6
1
9,10,11,12
FALSE
FALSE
FALSE
[/npc]