[npc]
Receptionist
down
277
6
4
NULL
0
-1
0
false
false
false
[/npc]
[npc]
NULL
down
0
6
5
NULL
0
-1
1
false
false
false
[/npc]
[npc]
Tourist
right
261
3
6
NULL
0
-1
2
false
false
false
[/npc]
[npc]
Tourist
down
272
4
6
NULL
0
-1
3,4
false
false
false
[/npc]
[npc]
Tourist
down
317
10
7
NULL
0
-1
5
false
false
false
[/npc]
[warp]
5
11
49
30
12
15
0
[/warp]