[npc]
NULL
down
0
7
12
NULL
0
-1
0
false
false
false
[/npc]
[warp]
8
5
19
27
-47
-34
0
[/warp]
[warp]
7
19
8
2
-48
-33
0
[/warp]
[warp]
8
19
9
2
-48
-33
0
[/warp]