[npc]
NULL
down
0
32
6
NULL
0
-1
0
false
false
false
[/npc]
[npc]
NULL
down
0
19
49
NULL
0
-1
0
false
false
false
[/npc]
[npc]
NULL
down
0
17
16
NULL
0
-1
3,4
false
false
false
[/npc]
[npc]
NPC
up
17
25
19
NULL
0
-1
6
false
false
false
[/npc]
[npc]
NPC
up
10
13
48
NULL
0
-1
5
false
false
false
[/npc]
[npc]
NPC
up
13
26
35
NULL
0
-1
7
false
false
false
[/npc]
[npc]
NPC
up
20
12
17
NULL
0
-1
8
false
false
false
[/npc]
[warp]
16
36
15
16
8
49
0
[/warp]
[warp]
16
45
5
7
20
49
0
[/warp]
[warp]
26
15
6
19
-49
47
0
[/warp]
[warp]
5
50
19
69
-42
-38
0
[/warp]
[warp]
27
30
16
24
-42
-39
0
[/warp]
[warp]
12
13
19
68
-42
-40
0
[/warp]
[warp]
27
46
13
20
-43
-36
0
[/warp]
[warp]
9
36
18
42
-43
-37
0
[/warp]
[warp]
13
26
16
21
-45
-10
0
[/warp]





