[warp]
20
15
15
16
5
49
0
[/warp]
[warp]
25
11
5
7
21
49
0
[/warp]
[warp]
15
7
40
99
-45
47
0
[/warp]
[warp]
10
18
15
24
-43
-40
0
[/warp]
[warp]
20
23
13
26
-43
-41
0
[/warp]
[warp]
6
4
15
25
-43
-39
0
[/warp]


