[npc]
NULL
down
0
20
30
NULL
0
-1
0,1
false
false
false
[/npc]
[npc]
NULL
down
0
31
25
NULL
0
-1
2
false
false
false
[/npc]
[npc]
NULL
down
0
19
7
NULL
0
-1
3
false
false
false
[/npc]
[warp]
27
18
5
7
-49
-30
0
[/warp]
[warp]
17
25
15
16
-49
-29
0
[/warp]
[warp]
15
16
22
33
-47
-25
0
[/warp]
[warp]
9
30
5
7
-47
-28
0
[/warp]
[warp]
33
11
5
7
-48
-32
0
[/warp]
[warp]
17
7
18
32
-39
-49
0
[/warp]
[npc]
Traveler
down
352
13
9
NULL
0
-1
4,5
false
false
false
[/npc]
[npc]
Researcher
up
279
17
18
NULL
0
-1
6,7
false
false
false
[/npc]
