[npc]
NULL
down
0
4
7
NULL
0
-1
0
false
false
false
[/npc]
[npc]
NULL
down
0
13
7
NULL
0
-1
1
false
false
false
[/npc]
[npc]
NULL
down
0
9
11
NULL
0
-1
2
false
false
false
[/npc]
[npc]
NULL
down
0
5
14
NULL
0
-1
3,4
false
false
false
[/npc]
[npc]
NULL
down
0
16
16
NULL
0
-1
5
false
false
false
[/npc]
[warp]
6
7
4
8
-48
-13
0
[/warp]
[warp]
15
7
4
8
-48
-15
0
[/warp]
[warp]
16
13
7
12
-48
-14
0
[/warp]
[npc]
Fat Man
down
351
17
17
NULL
0
-1
6,7
false
false
false
[/npc]