[warp]
30
26
15
16
11
-49
0
[/warp]
[warp]
20
13
18
21
-33
-47
0
[/warp]
[warp]
22
7
9
10
-39
-24
0
[/warp]
[warp]
10
25
9
10
-39
-22
0
[/warp]
[warp]
7
6
8
9
-39
-26
0
[/warp]
[warp]
34
6
8
9
-39
-30
0
[/warp]

