[warp]
22
13
30
52
41
30
0
[/warp]
[warp]
23
13
31
52
41
30
0
[/warp]
[warp]
24
54
6
47
26
20
0
[/warp]
[warp]
25
54
7
47
26
20
0
[/warp]
[warp]
23
39
40
54
-41
-39
0
[/warp]


